EESchema Schematic File Version 4
EELAYER 30 0
EELAYER END
$Descr A4 11693 8268
encoding utf-8
Sheet 1 1
Title ""
Date ""
Rev ""
Comp ""
Comment1 ""
Comment2 ""
Comment3 ""
Comment4 ""
$EndDescr
$Comp
L Connector_Generic:Conn_02x08_Odd_Even J1
U 1 1 5E97EAEA
P 4400 1850
F 0 "J1" H 4450 2367 50  0000 C CNN
F 1 "Conn_02x08_Odd_Even" H 4450 2276 50  0000 C CNN
F 2 "Connector_Multicomp:Multicomp_MC9A12-1634_2x08_P2.54mm_Vertical" H 4400 1850 50  0001 C CNN
F 3 "~" H 4400 1850 50  0001 C CNN
	1    4400 1850
	1    0    0    -1  
$EndComp
$Comp
L Connector_Generic:Conn_01x07 J2
U 1 1 5E9D56D5
P 1000 6700
F 0 "J2" H 918 6175 50  0000 C CNN
F 1 "Conn_01x07" V 1100 6650 50  0000 C CNN
F 2 "" H 1000 6700 50  0001 C CNN
F 3 "~" H 1000 6700 50  0001 C CNN
	1    1000 6700
	-1   0    0    1   
$EndComp
$Comp
L power:AC #PWR02
U 1 1 5E9D7FFD
P 950 5950
F 0 "#PWR02" H 950 5850 50  0001 C CNN
F 1 "AC" H 950 6225 50  0000 C CNN
F 2 "" H 950 5950 50  0001 C CNN
F 3 "" H 950 5950 50  0001 C CNN
	1    950  5950
	1    0    0    -1  
$EndComp
Wire Wire Line
	950  5950 1200 5950
Wire Wire Line
	1200 5950 1200 6400
Wire Wire Line
	1200 6400 1200 6500
Connection ~ 1200 6400
Wire Wire Line
	1200 6600 1350 6600
Wire Wire Line
	1350 6600 1350 5550
Wire Wire Line
	1350 5550 950  5550
$Comp
L power:AC #PWR01
U 1 1 5E9DAFFE
P 950 5550
F 0 "#PWR01" H 950 5450 50  0001 C CNN
F 1 "AC" H 950 5825 50  0000 C CNN
F 2 "" H 950 5550 50  0001 C CNN
F 3 "" H 950 5550 50  0001 C CNN
	1    950  5550
	1    0    0    -1  
$EndComp
$Comp
L Device:Transformer_1P_1S T1
U 1 1 5E9DDCE0
P 4200 6000
F 0 "T1" H 4200 6381 50  0000 C CNN
F 1 "Transformer_1P_1S" H 4200 6290 50  0000 C CNN
F 2 "" H 4200 6000 50  0001 C CNN
F 3 "~" H 4200 6000 50  0001 C CNN
	1    4200 6000
	1    0    0    -1  
$EndComp
$Comp
L Diode_Bridge:B40C2300-1500A D1
U 1 1 5E9DFC58
P 5000 6000
F 0 "D1" H 4950 6000 50  0000 L CNN
F 1 "B40C2300-1500A" H 4700 5650 50  0000 L CNN
F 2 "Diode_THT:Diode_Bridge_19.0x3.5x10.0mm_P5.0mm" H 5150 6125 50  0001 L CNN
F 3 "https://diotec.com/tl_files/diotec/files/pdf/datasheets/b40c2300.pdf" H 5000 6000 50  0001 C CNN
	1    5000 6000
	1    0    0    -1  
$EndComp
$Comp
L Device:L_Core_Ferrite_Coupled_1423 L1
U 1 1 5E9E8296
P 2950 6000
F 0 "L1" H 2950 6281 50  0000 C CNN
F 1 "L_Core_Ferrite_Coupled_1423" H 2950 6350 50  0000 C CNN
F 2 "Inductor_THT:Choke_EPCOS_B82722A" H 2950 6000 50  0001 C CNN
F 3 "~" H 2950 6000 50  0001 C CNN
	1    2950 6000
	1    0    0    -1  
$EndComp
$Comp
L Device:C C1
U 1 1 5E9E9295
P 2400 6050
F 0 "C1" H 2515 6096 50  0000 L CNN
F 1 "C" H 2515 6005 50  0000 L CNN
F 2 "" H 2438 5900 50  0001 C CNN
F 3 "~" H 2400 6050 50  0001 C CNN
	1    2400 6050
	1    0    0    -1  
$EndComp
$Comp
L Device:Varistor RV1
U 1 1 5E9EBD82
P 1700 6000
F 0 "RV1" H 1803 6046 50  0000 L CNN
F 1 "Varistor" H 1803 5955 50  0000 L CNN
F 2 "Varistor:RV_Disc_D9mm_W5.4mm_P5mm" V 1630 6000 50  0001 C CNN
F 3 "~" H 1700 6000 50  0001 C CNN
	1    1700 6000
	1    0    0    -1  
$EndComp
$Comp
L Device:Thermistor_PTC TH1
U 1 1 5E9ED755
P 1700 6450
F 0 "TH1" H 1797 6496 50  0000 L CNN
F 1 "Thermistor_PTC C880" H 1750 6600 50  0000 L CNN
F 2 "Varistor:RV_Disc_D9mm_W3.6mm_P5mm" H 1750 6250 50  0001 L CNN
F 3 "https://pdf1.alldatasheet.com/datasheet-pdf/view/567387/EPCOS/C880.html" H 1700 6450 50  0001 C CNN
	1    1700 6450
	1    0    0    -1  
$EndComp
Wire Wire Line
	1350 6600 1700 6600
Connection ~ 1350 6600
Wire Wire Line
	1700 6300 1700 6200
Wire Wire Line
	1700 5850 1200 5850
Wire Wire Line
	1200 5850 1200 5950
Connection ~ 1200 5950
Wire Wire Line
	2400 6200 1700 6200
Connection ~ 1700 6200
Wire Wire Line
	1700 6200 1700 6150
Wire Wire Line
	2400 5900 2400 5850
Wire Wire Line
	2400 5850 1700 5850
Connection ~ 1700 5850
Wire Wire Line
	2750 5900 2400 5900
Connection ~ 2400 5900
Wire Wire Line
	2750 6100 2750 6200
Wire Wire Line
	2750 6200 2400 6200
Connection ~ 2400 6200
$Comp
L Device:C C2
U 1 1 5EA04D45
P 3400 6000
F 0 "C2" H 3515 6046 50  0000 L CNN
F 1 "C" H 3515 5955 50  0000 L CNN
F 2 "" H 3438 5850 50  0001 C CNN
F 3 "~" H 3400 6000 50  0001 C CNN
	1    3400 6000
	1    0    0    -1  
$EndComp
Wire Wire Line
	3150 5900 3150 5850
Wire Wire Line
	3150 5850 3350 5850
Wire Wire Line
	3150 6100 3150 6150
Wire Wire Line
	3150 6150 3350 6150
Wire Wire Line
	3800 5800 3350 5800
Wire Wire Line
	3350 5800 3350 5850
Connection ~ 3350 5850
Wire Wire Line
	3350 5850 3400 5850
Wire Wire Line
	3800 6200 3350 6200
Wire Wire Line
	3350 6200 3350 6150
Connection ~ 3350 6150
Wire Wire Line
	3350 6150 3400 6150
Wire Wire Line
	4600 5800 4600 5700
Wire Wire Line
	4600 5700 5000 5700
Wire Wire Line
	4600 6200 4600 6300
Wire Wire Line
	4600 6300 5000 6300
$Comp
L power:+9V #PWR07
U 1 1 5EA1163A
P 5600 6000
F 0 "#PWR07" H 5600 5850 50  0001 C CNN
F 1 "+9V" H 5615 6173 50  0000 C CNN
F 2 "" H 5600 6000 50  0001 C CNN
F 3 "" H 5600 6000 50  0001 C CNN
	1    5600 6000
	1    0    0    -1  
$EndComp
Text Label 1350 5650 0    50   ~ 0
230V-P
Text Label 1900 5850 0    50   ~ 0
230V-N
Wire Notes Line
	600  5050 600  7200
Wire Notes Line
	600  7200 6400 7200
Wire Notes Line
	6400 7200 6400 5050
Wire Notes Line
	6400 5050 600  5050
Text Notes 750  5150 0    50   ~ 0
Spannungsversorgung 230VAC->9VDC
$Comp
L Connector:Raspberry_Pi_2_3 J6
U 1 1 5EA1D130
P 6850 2500
F 0 "J6" H 6850 3981 50  0000 C CNN
F 1 "Raspberry_Pi_2_3" H 6850 3890 50  0000 C CNN
F 2 "" H 6850 2500 50  0001 C CNN
F 3 "https://www.raspberrypi.org/documentation/hardware/raspberrypi/schematics/rpi_SCH_3bplus_1p0_reduced.pdf" H 6850 2500 50  0001 C CNN
	1    6850 2500
	1    0    0    -1  
$EndComp
$Comp
L Isolator:4N27 U1
U 1 1 5EA237D9
P 9250 3350
F 0 "U1" H 9250 3675 50  0000 C CNN
F 1 "4N27" H 9250 3584 50  0000 C CNN
F 2 "Package_DIP:DIP-6_W7.62mm" H 9050 3150 50  0001 L CIN
F 3 "https://www.vishay.com/docs/83725/4n25.pdf" H 9250 3350 50  0001 L CNN
	1    9250 3350
	1    0    0    -1  
$EndComp
$Comp
L Connector:Screw_Terminal_01x05 J4
U 1 1 5EA2789C
P 2750 6800
F 0 "J4" V 2622 7080 50  0000 L CNN
F 1 "Screw_Terminal_01x05" H 2800 7150 50  0000 L CNN
F 2 "" H 2750 6800 50  0001 C CNN
F 3 "~" H 2750 6800 50  0001 C CNN
	1    2750 6800
	1    0    0    1   
$EndComp
$Comp
L Device:Fuse F1
U 1 1 5EA2EAD0
P 2200 6600
F 0 "F1" V 2100 6750 50  0000 C CNN
F 1 "Fuse" V 2094 6600 50  0000 C CNN
F 2 "Fuse:Fuseholder_Cylinder-5x20mm_Schurter_0031_8201_Horizontal_Open" V 2130 6600 50  0001 C CNN
F 3 "~" H 2200 6600 50  0001 C CNN
	1    2200 6600
	0    1    1    0   
$EndComp
Wire Wire Line
	2050 6600 1700 6600
Connection ~ 1700 6600
$Comp
L Device:CP C3
U 1 1 5EA35885
P 5700 6150
F 0 "C3" H 5818 6196 50  0000 L CNN
F 1 "2200µF-35V" H 5818 6105 50  0000 L CNN
F 2 "Capacitor_THT:CP_Radial_D16.0mm_P7.50mm" H 5738 6000 50  0001 C CNN
F 3 "~" H 5700 6150 50  0001 C CNN
	1    5700 6150
	1    0    0    -1  
$EndComp
Wire Wire Line
	5700 6000 5600 6000
Wire Wire Line
	5700 6300 5700 6400
Wire Wire Line
	5700 6400 5600 6400
Wire Wire Line
	4700 6400 4700 6000
$Comp
L power:GND #PWR08
U 1 1 5EA3EA22
P 5600 6400
F 0 "#PWR08" H 5600 6150 50  0001 C CNN
F 1 "GND" H 5605 6227 50  0000 C CNN
F 2 "" H 5600 6400 50  0001 C CNN
F 3 "" H 5600 6400 50  0001 C CNN
	1    5600 6400
	1    0    0    -1  
$EndComp
Connection ~ 5600 6400
Wire Wire Line
	5600 6400 4700 6400
Connection ~ 5600 6000
Wire Wire Line
	5600 6000 5300 6000
Wire Wire Line
	2350 6600 2550 6600
Wire Wire Line
	2550 6700 1200 6700
Wire Wire Line
	1200 6800 2550 6800
Wire Wire Line
	2550 6900 1200 6900
Wire Wire Line
	1200 7000 2550 7000
Text Notes 2950 6950 0    50   ~ 0
1: Magnetventil Wasserzufuhr\n2: Magnetventil: Heißwasser\n3: Pumpe\n4: Magnetventil Brühgruppe
$Comp
L Device:R R2
U 1 1 5EC0E289
P 4350 2600
F 0 "R2" H 4420 2646 50  0000 L CNN
F 1 "220" H 4420 2555 50  0000 L CNN
F 2 "" V 4280 2600 50  0001 C CNN
F 3 "~" H 4350 2600 50  0001 C CNN
	1    4350 2600
	1    0    0    -1  
$EndComp
$Comp
L Device:R R8
U 1 1 5EC0EB2A
P 4700 2600
F 0 "R8" H 4770 2646 50  0000 L CNN
F 1 "220" H 4770 2555 50  0000 L CNN
F 2 "" V 4630 2600 50  0001 C CNN
F 3 "~" H 4700 2600 50  0001 C CNN
	1    4700 2600
	1    0    0    -1  
$EndComp
Wire Wire Line
	4700 2750 4700 3100
Wire Wire Line
	4700 3100 6050 3100
Wire Wire Line
	4700 2250 4700 2450
Wire Wire Line
	4200 2250 4200 2450
Wire Wire Line
	4700 2050 5050 2050
Wire Wire Line
	4700 1950 5150 1950
Wire Wire Line
	5050 3000 6050 3000
Wire Wire Line
	5050 2050 5050 3000
Wire Wire Line
	5150 2900 6050 2900
Wire Wire Line
	5150 1950 5150 2900
Wire Wire Line
	4700 1850 5250 1850
Wire Wire Line
	5250 1850 5250 2800
Wire Wire Line
	5250 2800 6050 2800
Wire Wire Line
	4700 1750 5350 1750
Wire Wire Line
	5350 1750 5350 2700
Wire Wire Line
	5350 2700 6050 2700
Wire Wire Line
	4700 1650 5450 1650
Wire Wire Line
	5450 1650 5450 2000
Wire Wire Line
	5450 2000 6050 2000
$Comp
L power:GND #PWR05
U 1 1 5EC1C418
P 3900 1450
F 0 "#PWR05" H 3900 1200 50  0001 C CNN
F 1 "GND" H 3905 1277 50  0000 C CNN
F 2 "" H 3900 1450 50  0001 C CNN
F 3 "" H 3900 1450 50  0001 C CNN
	1    3900 1450
	-1   0    0    1   
$EndComp
Wire Wire Line
	3900 1450 3900 1550
Wire Wire Line
	3900 1550 4200 1550
$Comp
L power:GND #PWR06
U 1 1 5EC24FFA
P 4950 1400
F 0 "#PWR06" H 4950 1150 50  0001 C CNN
F 1 "GND" H 4955 1227 50  0000 C CNN
F 2 "" H 4950 1400 50  0001 C CNN
F 3 "" H 4950 1400 50  0001 C CNN
	1    4950 1400
	-1   0    0    1   
$EndComp
Wire Wire Line
	4700 1550 4950 1550
Wire Wire Line
	4950 1550 4950 1400
$Comp
L power:GND #PWR010
U 1 1 5EC27316
P 6450 3800
F 0 "#PWR010" H 6450 3550 50  0001 C CNN
F 1 "GND" H 6455 3627 50  0000 C CNN
F 2 "" H 6450 3800 50  0001 C CNN
F 3 "" H 6450 3800 50  0001 C CNN
	1    6450 3800
	1    0    0    -1  
$EndComp
Wire Wire Line
	7150 3800 7050 3800
Wire Wire Line
	6950 3800 7050 3800
Connection ~ 7050 3800
Wire Wire Line
	6450 3800 6550 3800
Connection ~ 6450 3800
Wire Wire Line
	6650 3800 6550 3800
Connection ~ 6550 3800
Wire Wire Line
	6750 3800 6650 3800
Connection ~ 6650 3800
Wire Wire Line
	6850 3800 6750 3800
Connection ~ 6750 3800
Wire Wire Line
	6950 3800 6850 3800
Connection ~ 6950 3800
Connection ~ 6850 3800
Wire Wire Line
	4200 2450 4350 2450
Wire Wire Line
	4350 2750 4350 3200
Wire Wire Line
	4350 3200 6050 3200
$Comp
L Device:R R6
U 1 1 5EC3E253
P 4550 3950
F 0 "R6" V 4650 4000 50  0000 L CNN
F 1 "220" V 4650 3850 50  0000 L CNN
F 2 "" V 4480 3950 50  0001 C CNN
F 3 "~" H 4550 3950 50  0001 C CNN
	1    4550 3950
	0    1    1    0   
$EndComp
$Comp
L Device:R R7
U 1 1 5EC3F62C
P 4550 4150
F 0 "R7" V 4650 4200 50  0000 L CNN
F 1 "220" V 4650 4050 50  0000 L CNN
F 2 "" V 4480 4150 50  0001 C CNN
F 3 "~" H 4550 4150 50  0001 C CNN
	1    4550 4150
	0    1    1    0   
$EndComp
$Comp
L Device:R R5
U 1 1 5EC40536
P 4550 3750
F 0 "R5" V 4650 3800 50  0000 L CNN
F 1 "220" V 4650 3650 50  0000 L CNN
F 2 "" V 4480 3750 50  0001 C CNN
F 3 "~" H 4550 3750 50  0001 C CNN
	1    4550 3750
	0    1    1    0   
$EndComp
$Comp
L Device:R R4
U 1 1 5EC40B5D
P 4550 3550
F 0 "R4" V 4650 3600 50  0000 L CNN
F 1 "220" V 4650 3450 50  0000 L CNN
F 2 "" V 4480 3550 50  0001 C CNN
F 3 "~" H 4550 3550 50  0001 C CNN
	1    4550 3550
	0    1    1    0   
$EndComp
$Comp
L Device:R R3
U 1 1 5EC41D09
P 4550 3350
F 0 "R3" V 4650 3400 50  0000 L CNN
F 1 "220" V 4650 3250 50  0000 L CNN
F 2 "" V 4480 3350 50  0001 C CNN
F 3 "~" H 4550 3350 50  0001 C CNN
	1    4550 3350
	0    1    1    0   
$EndComp
Wire Wire Line
	4400 3350 4150 3350
Wire Wire Line
	4400 3550 4050 3550
Wire Wire Line
	3950 3750 4400 3750
Wire Wire Line
	3850 3950 4400 3950
Wire Wire Line
	3750 4150 4400 4150
Wire Wire Line
	4700 3350 6050 3350
Wire Wire Line
	6050 3350 6050 4050
Wire Wire Line
	6050 4050 8150 4050
Wire Wire Line
	8150 3000 7650 3000
Wire Wire Line
	4700 3550 5950 3550
Wire Wire Line
	5950 3550 5950 4150
Wire Wire Line
	5950 4150 8250 4150
Wire Wire Line
	8250 4150 8250 2900
Wire Wire Line
	8250 2900 7650 2900
Wire Wire Line
	4700 3750 5850 3750
Wire Wire Line
	5850 3750 5850 4250
Wire Wire Line
	5850 4250 8350 4250
Wire Wire Line
	8350 2800 8350 4250
Wire Wire Line
	8350 2800 7650 2800
Wire Wire Line
	4700 3950 5750 3950
Wire Wire Line
	5750 3950 5750 4350
Wire Wire Line
	5750 4350 8450 4350
Wire Wire Line
	8450 4350 8450 2700
Wire Wire Line
	8450 2700 7650 2700
Wire Wire Line
	4700 4150 5650 4150
Wire Wire Line
	5650 4150 5650 4450
Wire Wire Line
	8550 2600 7650 2600
Wire Wire Line
	5650 4450 8550 4450
Wire Wire Line
	8550 2600 8550 4450
Text Notes 4200 1300 0    50   ~ 0
Display-Unit
Wire Wire Line
	4200 2050 4150 2050
Wire Wire Line
	4150 2050 4150 3350
Wire Wire Line
	4200 1950 4050 1950
Wire Wire Line
	4050 1950 4050 3550
Wire Wire Line
	4200 1850 3950 1850
Wire Wire Line
	3950 1850 3950 3750
Wire Wire Line
	4200 1750 3850 1750
Wire Wire Line
	3850 1750 3850 3950
Wire Wire Line
	4200 1650 3750 1650
Wire Wire Line
	3750 1650 3750 4150
$Comp
L power:+5V #PWR04
U 1 1 5EBA671E
P 3550 750
F 0 "#PWR04" H 3550 600 50  0001 C CNN
F 1 "+5V" V 3565 878 50  0000 L CNN
F 2 "" H 3550 750 50  0001 C CNN
F 3 "" H 3550 750 50  0001 C CNN
	1    3550 750 
	0    1    1    0   
$EndComp
$Comp
L Connector:Conn_01x06_Female J5
U 1 1 5EBA75D2
P 3350 1050
F 0 "J5" H 3242 525 50  0000 C CNN
F 1 "Conn_01x06_Female" H 3242 616 50  0000 C CNN
F 2 "" H 3350 1050 50  0001 C CNN
F 3 "~" H 3350 1050 50  0001 C CNN
	1    3350 1050
	-1   0    0    1   
$EndComp
Wire Wire Line
	3550 1250 3550 1550
Wire Wire Line
	3550 1550 3900 1550
Connection ~ 3900 1550
Wire Wire Line
	6200 1150 6200 900 
Wire Wire Line
	6200 900  8100 900 
Wire Wire Line
	8100 900  8100 1600
Wire Wire Line
	8100 1600 7650 1600
Wire Wire Line
	3550 1150 6200 1150
Wire Wire Line
	3550 1050 6100 1050
Wire Wire Line
	6100 1050 6100 800 
Wire Wire Line
	6100 800  8200 800 
Wire Wire Line
	8200 800  8200 1700
Wire Wire Line
	8200 1700 7650 1700
Wire Wire Line
	3550 950  6000 950 
Wire Wire Line
	6000 950  6000 700 
Wire Wire Line
	6000 700  8300 700 
Wire Wire Line
	8300 700  8300 2200
Wire Wire Line
	8300 2200 7650 2200
Wire Wire Line
	3550 850  5900 850 
Wire Wire Line
	5900 850  5900 600 
Wire Wire Line
	5900 600  8400 600 
Wire Wire Line
	8400 600  8400 2300
Wire Wire Line
	8400 2300 7650 2300
Text Notes 3250 1250 1    50   ~ 0
4xRelais-Board
$Comp
L Isolator:4N27 U2
U 1 1 5EBCE620
P 9250 3900
F 0 "U2" H 9250 4225 50  0000 C CNN
F 1 "4N27" H 9250 4134 50  0000 C CNN
F 2 "Package_DIP:DIP-6_W7.62mm" H 9050 3700 50  0001 L CIN
F 3 "https://www.vishay.com/docs/83725/4n25.pdf" H 9250 3900 50  0001 L CNN
	1    9250 3900
	1    0    0    -1  
$EndComp
Wire Wire Line
	7650 3300 7800 3300
Wire Wire Line
	7800 3300 7800 3800
Wire Wire Line
	7800 3800 8950 3800
Wire Wire Line
	8150 4050 8150 3000
Wire Wire Line
	7650 3200 7900 3200
Wire Wire Line
	7900 3200 7900 3250
Wire Wire Line
	7900 3250 8950 3250
$Comp
L Device:R R11
U 1 1 5EBE8761
P 8950 4350
F 0 "R11" H 9020 4396 50  0000 L CNN
F 1 "470" H 9020 4305 50  0000 L CNN
F 2 "" V 8880 4350 50  0001 C CNN
F 3 "~" H 8950 4350 50  0001 C CNN
	1    8950 4350
	1    0    0    -1  
$EndComp
$Comp
L power:GND #PWR017
U 1 1 5EBE923D
P 8950 4500
F 0 "#PWR017" H 8950 4250 50  0001 C CNN
F 1 "GND" H 8955 4327 50  0000 C CNN
F 2 "" H 8950 4500 50  0001 C CNN
F 3 "" H 8950 4500 50  0001 C CNN
	1    8950 4500
	1    0    0    -1  
$EndComp
Wire Wire Line
	8950 4000 8950 4200
Wire Wire Line
	8950 3450 8800 3450
Wire Wire Line
	8800 3450 8800 4000
Wire Wire Line
	8800 4000 8950 4000
Connection ~ 8950 4000
NoConn ~ 9550 3250
NoConn ~ 9550 3800
$Comp
L Device:R R13
U 1 1 5EC00A3A
P 9700 2800
F 0 "R13" H 9770 2846 50  0000 L CNN
F 1 "470" H 9770 2755 50  0000 L CNN
F 2 "" V 9630 2800 50  0001 C CNN
F 3 "~" H 9700 2800 50  0001 C CNN
	1    9700 2800
	1    0    0    -1  
$EndComp
$Comp
L power:+5V #PWR019
U 1 1 5EC07C57
P 9700 2650
F 0 "#PWR019" H 9700 2500 50  0001 C CNN
F 1 "+5V" H 9715 2823 50  0000 C CNN
F 2 "" H 9700 2650 50  0001 C CNN
F 3 "" H 9700 2650 50  0001 C CNN
	1    9700 2650
	1    0    0    -1  
$EndComp
Wire Wire Line
	9700 2950 9700 3350
Wire Wire Line
	9700 3350 9550 3350
Wire Wire Line
	9700 3350 9700 3900
Connection ~ 9700 3350
Wire Wire Line
	9700 3900 9550 3900
$Comp
L Connector:Conn_01x02_Male J10
U 1 1 5EC243D7
P 10050 3550
F 0 "J10" H 10022 3432 50  0000 R CNN
F 1 "Conn_01x02_Male" H 10022 3523 50  0000 R CNN
F 2 "" H 10050 3550 50  0001 C CNN
F 3 "~" H 10050 3550 50  0001 C CNN
	1    10050 3550
	-1   0    0    1   
$EndComp
$Comp
L Connector:Conn_01x02_Male J11
U 1 1 5EC26AE0
P 10050 4100
F 0 "J11" H 10022 3982 50  0000 R CNN
F 1 "Conn_01x02_Male" H 10022 4073 50  0000 R CNN
F 2 "" H 10050 4100 50  0001 C CNN
F 3 "~" H 10050 4100 50  0001 C CNN
	1    10050 4100
	-1   0    0    1   
$EndComp
Wire Wire Line
	9550 4000 9850 4000
Wire Wire Line
	9550 3450 9850 3450
$Comp
L power:GND #PWR021
U 1 1 5EC5279B
P 9850 3550
F 0 "#PWR021" H 9850 3300 50  0001 C CNN
F 1 "GND" H 9855 3377 50  0000 C CNN
F 2 "" H 9850 3550 50  0001 C CNN
F 3 "" H 9850 3550 50  0001 C CNN
	1    9850 3550
	1    0    0    -1  
$EndComp
$Comp
L power:GND #PWR022
U 1 1 5EC52DC7
P 9850 4100
F 0 "#PWR022" H 9850 3850 50  0001 C CNN
F 1 "GND" H 9855 3927 50  0000 C CNN
F 2 "" H 9850 4100 50  0001 C CNN
F 3 "" H 9850 4100 50  0001 C CNN
	1    9850 4100
	1    0    0    -1  
$EndComp
Text Notes 10600 3650 2    50   ~ 0
Brewing-Heater
Text Notes 10600 4200 2    50   ~ 0
Boiler-Heater
$Comp
L Isolator:4N27 U3
U 1 1 5EC54E7A
P 9500 2000
F 0 "U3" H 9500 2325 50  0000 C CNN
F 1 "4N27" H 9500 2234 50  0000 C CNN
F 2 "Package_DIP:DIP-6_W7.62mm" H 9300 1800 50  0001 L CIN
F 3 "https://www.vishay.com/docs/83725/4n25.pdf" H 9500 2000 50  0001 L CNN
	1    9500 2000
	-1   0    0    1   
$EndComp
$Comp
L Connector:Conn_01x03_Male J12
U 1 1 5EC58397
P 10350 2200
F 0 "J12" H 10322 2132 50  0000 R CNN
F 1 "Conn_01x03_Male" H 10322 2223 50  0000 R CNN
F 2 "" H 10350 2200 50  0001 C CNN
F 3 "~" H 10350 2200 50  0001 C CNN
	1    10350 2200
	-1   0    0    1   
$EndComp
$Comp
L Device:R R14
U 1 1 5EC66531
P 9800 1450
F 0 "R14" H 9870 1496 50  0000 L CNN
F 1 "470" H 9870 1405 50  0000 L CNN
F 2 "" V 9730 1450 50  0001 C CNN
F 3 "~" H 9800 1450 50  0001 C CNN
	1    9800 1450
	1    0    0    -1  
$EndComp
$Comp
L power:GND #PWR020
U 1 1 5EC6CE37
P 9800 1300
F 0 "#PWR020" H 9800 1050 50  0001 C CNN
F 1 "GND" H 9805 1127 50  0000 C CNN
F 2 "" H 9800 1300 50  0001 C CNN
F 3 "" H 9800 1300 50  0001 C CNN
	1    9800 1300
	-1   0    0    1   
$EndComp
Wire Wire Line
	9800 1900 9800 1600
$Comp
L power:GND #PWR018
U 1 1 5EC71815
P 9200 1500
F 0 "#PWR018" H 9200 1250 50  0001 C CNN
F 1 "GND" H 9205 1327 50  0000 C CNN
F 2 "" H 9200 1500 50  0001 C CNN
F 3 "" H 9200 1500 50  0001 C CNN
	1    9200 1500
	-1   0    0    1   
$EndComp
Wire Wire Line
	9200 1900 9200 1800
NoConn ~ 9200 2100
Wire Wire Line
	7650 2400 8500 2400
Wire Wire Line
	8500 2400 8500 2000
Wire Wire Line
	8500 2000 9200 2000
$Comp
L Device:R R12
U 1 1 5EC85340
P 9200 1650
F 0 "R12" H 9270 1696 50  0000 L CNN
F 1 "220" H 9270 1605 50  0000 L CNN
F 2 "" V 9130 1650 50  0001 C CNN
F 3 "~" H 9200 1650 50  0001 C CNN
	1    9200 1650
	1    0    0    -1  
$EndComp
Text Notes 10950 2150 2    50   ~ 0
Flowmeter
Text Notes 2200 2550 2    50   ~ 0
Temp-Sensor-Boiler
Text Notes 7800 5900 2    50   ~ 0
Temp-Sensor-Brewing
$Comp
L power:GND #PWR013
U 1 1 5EC9FA5D
P 8050 4900
F 0 "#PWR013" H 8050 4650 50  0001 C CNN
F 1 "GND" V 8050 4700 50  0000 C CNN
F 2 "" H 8050 4900 50  0001 C CNN
F 3 "" H 8050 4900 50  0001 C CNN
	1    8050 4900
	-1   0    0    1   
$EndComp
$Comp
L power:+3.3V #PWR015
U 1 1 5ECA0684
P 8250 4900
F 0 "#PWR015" H 8250 4750 50  0001 C CNN
F 1 "+3.3V" H 8265 5073 50  0000 C CNN
F 2 "" H 8250 4900 50  0001 C CNN
F 3 "" H 8250 4900 50  0001 C CNN
	1    8250 4900
	1    0    0    -1  
$EndComp
$Comp
L power:+3.3V #PWR011
U 1 1 5ECA27B8
P 7400 1200
F 0 "#PWR011" H 7400 1050 50  0001 C CNN
F 1 "+3.3V" H 7415 1373 50  0000 C CNN
F 2 "" H 7400 1200 50  0001 C CNN
F 3 "" H 7400 1200 50  0001 C CNN
	1    7400 1200
	1    0    0    -1  
$EndComp
Wire Wire Line
	6950 1200 7050 1200
Wire Wire Line
	7400 1200 7050 1200
Connection ~ 7050 1200
Wire Wire Line
	6650 1200 6750 1200
$Comp
L power:+5V #PWR09
U 1 1 5ECB607F
P 6350 1200
F 0 "#PWR09" H 6350 1050 50  0001 C CNN
F 1 "+5V" H 6365 1373 50  0000 C CNN
F 2 "" H 6350 1200 50  0001 C CNN
F 3 "" H 6350 1200 50  0001 C CNN
	1    6350 1200
	1    0    0    -1  
$EndComp
Wire Wire Line
	6350 1200 6650 1200
Connection ~ 6650 1200
Text Label 7750 1900 0    50   ~ 0
SDA
Text Label 7750 2000 0    50   ~ 0
SCL
Wire Wire Line
	7650 1900 7750 1900
Wire Wire Line
	7750 2000 7650 2000
Wire Wire Line
	8250 5700 8150 5700
$Comp
L Connector:Conn_01x10_Female J9
U 1 1 5ED6A53D
P 8450 5300
F 0 "J9" H 8478 5276 50  0000 L CNN
F 1 "Conn_01x10_Female" H 8478 5185 50  0000 L CNN
F 2 "" H 8450 5300 50  0001 C CNN
F 3 "~" H 8450 5300 50  0001 C CNN
	1    8450 5300
	1    0    0    -1  
$EndComp
Wire Wire Line
	8250 5000 8050 5000
Wire Wire Line
	8050 5000 8050 4900
Text Notes 9250 5550 2    50   ~ 0
ADS1115-ADModule
Text Notes 2100 2350 2    50   ~ 0
Water-Sensor
Text Label 3150 2350 2    50   ~ 0
GPIO16
Text Label 6050 1900 2    50   ~ 0
GPIO16
$Comp
L Device:R R9
U 1 1 5ECB7577
P 8050 6150
F 0 "R9" H 8120 6196 50  0000 L CNN
F 1 "47k" H 8120 6105 50  0000 L CNN
F 2 "" V 7980 6150 50  0001 C CNN
F 3 "~" H 8050 6150 50  0001 C CNN
	1    8050 6150
	1    0    0    -1  
$EndComp
$Comp
L Device:R R10
U 1 1 5ECB8037
P 8400 6150
F 0 "R10" H 8470 6196 50  0000 L CNN
F 1 "47k" H 8470 6105 50  0000 L CNN
F 2 "" V 8330 6150 50  0001 C CNN
F 3 "~" H 8400 6150 50  0001 C CNN
	1    8400 6150
	1    0    0    -1  
$EndComp
Wire Wire Line
	8050 6000 8050 5500
Connection ~ 8050 5500
Wire Wire Line
	8050 5500 8250 5500
Wire Wire Line
	8400 6000 8150 6000
Wire Wire Line
	8150 6000 8150 5700
Connection ~ 8150 5700
Wire Wire Line
	8150 5700 7450 5700
$Comp
L power:GND #PWR016
U 1 1 5ECC7994
P 8400 6300
F 0 "#PWR016" H 8400 6050 50  0001 C CNN
F 1 "GND" H 8405 6127 50  0000 C CNN
F 2 "" H 8400 6300 50  0001 C CNN
F 3 "" H 8400 6300 50  0001 C CNN
	1    8400 6300
	1    0    0    -1  
$EndComp
$Comp
L power:GND #PWR014
U 1 1 5ECC7EDE
P 8050 6300
F 0 "#PWR014" H 8050 6050 50  0001 C CNN
F 1 "GND" H 8055 6127 50  0000 C CNN
F 2 "" H 8050 6300 50  0001 C CNN
F 3 "" H 8050 6300 50  0001 C CNN
	1    8050 6300
	1    0    0    -1  
$EndComp
$Comp
L power:+3.3V #PWR012
U 1 1 5ECCB13C
P 7850 6150
F 0 "#PWR012" H 7850 6000 50  0001 C CNN
F 1 "+3.3V" H 7865 6323 50  0000 C CNN
F 2 "" H 7850 6150 50  0001 C CNN
F 3 "" H 7850 6150 50  0001 C CNN
	1    7850 6150
	-1   0    0    1   
$EndComp
Wire Wire Line
	7850 5600 7850 5800
Wire Wire Line
	7450 5800 7850 5800
Connection ~ 7850 5800
Wire Wire Line
	7850 5800 7850 6150
$Comp
L Connector:Conn_01x02_Male J7
U 1 1 5ECE9096
P 7200 4850
F 0 "J7" H 7308 5031 50  0000 C CNN
F 1 "Conn_01x02_Male" H 7308 4940 50  0000 C CNN
F 2 "" H 7200 4850 50  0001 C CNN
F 3 "~" H 7200 4850 50  0001 C CNN
	1    7200 4850
	1    0    0    -1  
$EndComp
Wire Wire Line
	7400 4950 7400 5200
Wire Wire Line
	7400 5200 7900 5200
Wire Wire Line
	7900 5200 7900 5800
Wire Wire Line
	7900 5800 8250 5800
Text Label 8200 5100 2    50   ~ 0
SCL
Text Label 8200 5200 2    50   ~ 0
SDA
Wire Wire Line
	8200 5100 8250 5100
Wire Wire Line
	8200 5200 8250 5200
Wire Wire Line
	7400 4850 7500 4850
Wire Wire Line
	7500 4850 7500 5150
Wire Wire Line
	7500 5150 7950 5150
Wire Wire Line
	7950 5150 7950 5600
Wire Wire Line
	7950 5600 8250 5600
Wire Wire Line
	9800 2100 10150 2100
$Comp
L power:+5V #PWR024
U 1 1 5ED5278D
P 10150 2300
F 0 "#PWR024" H 10150 2150 50  0001 C CNN
F 1 "+5V" H 10165 2473 50  0000 C CNN
F 2 "" H 10150 2300 50  0001 C CNN
F 3 "" H 10150 2300 50  0001 C CNN
	1    10150 2300
	-1   0    0    1   
$EndComp
$Comp
L power:GND #PWR023
U 1 1 5ED531C5
P 10150 2200
F 0 "#PWR023" H 10150 1950 50  0001 C CNN
F 1 "GND" H 10155 2027 50  0000 C CNN
F 2 "" H 10150 2200 50  0001 C CNN
F 3 "" H 10150 2200 50  0001 C CNN
	1    10150 2200
	0    1    1    0   
$EndComp
$Comp
L Connector:Conn_01x02_Male J8
U 1 1 5ED57B6D
P 7250 5700
F 0 "J8" H 7222 5582 50  0000 R CNN
F 1 "Conn_01x02_Male" H 7222 5673 50  0000 R CNN
F 2 "" H 7250 5700 50  0001 C CNN
F 3 "~" H 7250 5700 50  0001 C CNN
	1    7250 5700
	1    0    0    -1  
$EndComp
$Comp
L Connector:Conn_01x04_Male J3
U 1 1 5ED5A928
P 2250 2350
F 0 "J3" H 2358 2631 50  0000 C CNN
F 1 "Conn_01x04_Male" H 2358 2540 50  0000 C CNN
F 2 "" H 2250 2350 50  0001 C CNN
F 3 "~" H 2250 2350 50  0001 C CNN
	1    2250 2350
	1    0    0    -1  
$EndComp
Wire Wire Line
	2450 2550 2450 4900
Wire Wire Line
	2450 4900 6550 4900
Wire Wire Line
	6550 4900 6550 5600
Wire Wire Line
	6550 5600 7850 5600
Wire Wire Line
	6650 5500 6650 4800
Wire Wire Line
	6650 4800 2550 4800
Wire Wire Line
	2550 4800 2550 2450
Wire Wire Line
	2550 2450 2450 2450
Wire Wire Line
	6650 5500 8050 5500
Wire Wire Line
	2450 2350 3150 2350
$Comp
L power:GND #PWR03
U 1 1 5ED9D8B4
P 2900 1800
F 0 "#PWR03" H 2900 1550 50  0001 C CNN
F 1 "GND" H 2905 1627 50  0000 C CNN
F 2 "" H 2900 1800 50  0001 C CNN
F 3 "" H 2900 1800 50  0001 C CNN
	1    2900 1800
	-1   0    0    1   
$EndComp
$Comp
L Device:R R1
U 1 1 5ED9EA57
P 2900 1950
F 0 "R1" V 3000 2000 50  0000 L CNN
F 1 "220" V 3000 1850 50  0000 L CNN
F 2 "" V 2830 1950 50  0001 C CNN
F 3 "~" H 2900 1950 50  0001 C CNN
	1    2900 1950
	-1   0    0    1   
$EndComp
Wire Wire Line
	2450 2250 2900 2250
Wire Wire Line
	2900 2250 2900 2100
$EndSCHEMATC
