(kicad_pcb (version 20171130) (host pcbnew 5.1.5-52549c5~86~ubuntu18.04.1)

  (general
    (thickness 1.6)
    (drawings 11)
    (tracks 0)
    (zones 0)
    (modules 0)
    (nets 1)
  )

  (page A4)
  (title_block
    (title "La Spaziale Vivaldi2 Systemplatine f. Raspberry")
    (date 2020-04-11)
    (rev v1)
    (company "(C) Mario Cremer")
  )

  (layers
    (0 F.Cu signal)
    (31 B.Cu signal)
    (32 B.Adhes user)
    (33 F.Adhes user)
    (34 B.Paste user)
    (35 F.Paste user)
    (36 B.SilkS user)
    (37 F.SilkS user)
    (38 B.Mask user)
    (39 F.Mask user)
    (40 Dwgs.User user)
    (41 Cmts.User user)
    (42 Eco1.User user)
    (43 Eco2.User user)
    (44 Edge.Cuts user)
    (45 Margin user)
    (46 B.CrtYd user)
    (47 F.CrtYd user)
    (48 B.Fab user)
    (49 F.Fab user)
  )

  (setup
    (last_trace_width 0.25)
    (trace_clearance 0.2)
    (zone_clearance 0.508)
    (zone_45_only no)
    (trace_min 0.2)
    (via_size 0.8)
    (via_drill 0.4)
    (via_min_size 0.4)
    (via_min_drill 0.3)
    (uvia_size 0.3)
    (uvia_drill 0.1)
    (uvias_allowed no)
    (uvia_min_size 0.2)
    (uvia_min_drill 0.1)
    (edge_width 0.05)
    (segment_width 0.2)
    (pcb_text_width 0.3)
    (pcb_text_size 1.5 1.5)
    (mod_edge_width 0.12)
    (mod_text_size 1 1)
    (mod_text_width 0.15)
    (pad_size 1.524 1.524)
    (pad_drill 0.762)
    (pad_to_mask_clearance 0.051)
    (solder_mask_min_width 0.25)
    (aux_axis_origin 0 0)
    (visible_elements FFFFFF7F)
    (pcbplotparams
      (layerselection 0x010fc_ffffffff)
      (usegerberextensions false)
      (usegerberattributes false)
      (usegerberadvancedattributes false)
      (creategerberjobfile false)
      (excludeedgelayer true)
      (linewidth 0.100000)
      (plotframeref false)
      (viasonmask false)
      (mode 1)
      (useauxorigin false)
      (hpglpennumber 1)
      (hpglpenspeed 20)
      (hpglpendiameter 15.000000)
      (psnegative false)
      (psa4output false)
      (plotreference true)
      (plotvalue true)
      (plotinvisibletext false)
      (padsonsilk false)
      (subtractmaskfromsilk false)
      (outputformat 1)
      (mirror false)
      (drillshape 1)
      (scaleselection 1)
      (outputdirectory ""))
  )

  (net 0 "")

  (net_class Default "This is the default net class."
    (clearance 0.2)
    (trace_width 0.25)
    (via_dia 0.8)
    (via_drill 0.4)
    (uvia_dia 0.3)
    (uvia_drill 0.1)
  )

  (gr_circle (center 101.506 42.2045) (end 103.406 42.2045) (layer Edge.Cuts) (width 0.05) (tstamp 5E92545E))
  (dimension 80.01 (width 0.05) (layer F.CrtYd)
    (gr_text "80,010 mm" (at 22.1045 78.105 270) (layer F.CrtYd)
      (effects (font (size 1 1) (thickness 0.15)))
    )
    (feature1 (pts (xy 25.527 118.11) (xy 22.718079 118.11)))
    (feature2 (pts (xy 25.527 38.1) (xy 22.718079 38.1)))
    (crossbar (pts (xy 23.3045 38.1) (xy 23.3045 118.11)))
    (arrow1a (pts (xy 23.3045 118.11) (xy 22.718079 116.983496)))
    (arrow1b (pts (xy 23.3045 118.11) (xy 23.890921 116.983496)))
    (arrow2a (pts (xy 23.3045 38.1) (xy 22.718079 39.226504)))
    (arrow2b (pts (xy 23.3045 38.1) (xy 23.890921 39.226504)))
  )
  (dimension 140.081 (width 0.05) (layer F.CrtYd)
    (gr_text "140,081 mm" (at 95.5675 122.2945) (layer F.CrtYd)
      (effects (font (size 1 1) (thickness 0.15)))
    )
    (feature1 (pts (xy 165.608 118.11) (xy 165.608 121.680921)))
    (feature2 (pts (xy 25.527 118.11) (xy 25.527 121.680921)))
    (crossbar (pts (xy 25.527 121.0945) (xy 165.608 121.0945)))
    (arrow1a (pts (xy 165.608 121.0945) (xy 164.481496 121.680921)))
    (arrow1b (pts (xy 165.608 121.0945) (xy 164.481496 120.508079)))
    (arrow2a (pts (xy 25.527 121.0945) (xy 26.653504 121.680921)))
    (arrow2b (pts (xy 25.527 121.0945) (xy 26.653504 120.508079)))
  )
  (gr_circle (center 29.63 114.011) (end 31.53 114.011) (layer Edge.Cuts) (width 0.05) (tstamp 5E91E09F))
  (gr_circle (center 161.507 114.006) (end 163.407 114.006) (layer Edge.Cuts) (width 0.05))
  (gr_circle (center 161.504 42.204) (end 163.404 42.204) (layer Edge.Cuts) (width 0.05))
  (gr_circle (center 29.624 42.203) (end 31.524 42.203) (layer Edge.Cuts) (width 0.05) (tstamp 5E91E069))
  (gr_line (start 25.527 118.11) (end 25.527 38.1) (layer Edge.Cuts) (width 0.05) (tstamp 5E91E063))
  (gr_line (start 165.608 118.11) (end 25.527 118.11) (layer Edge.Cuts) (width 0.05))
  (gr_line (start 165.608 38.1) (end 165.608 118.11) (layer Edge.Cuts) (width 0.05))
  (gr_line (start 25.527 38.1) (end 165.608 38.1) (layer Edge.Cuts) (width 0.05))

)
